<svg width="28" height="28" viewBox="0 0 28 28" fill="none" xmlns="http://www.w3.org/2000/svg">
<g id="Instagram">
<path id="Combined Shape" fill-rule="evenodd" clip-rule="evenodd" d="M14 0C6.26801 0 0 6.26807 0 14C0 21.7319 6.26801 28 14 28C21.732 28 28 21.7319 28 14C28 6.26807 21.732 0 14 0ZM10.9218 6.5791C11.718 6.54272 11.9725 6.53394 13.9983 6.53394C16.0268 6.53394 16.2803 6.54272 17.0768 6.5791C17.8717 6.61548 18.4146 6.74121 18.8906 6.92603C19.3821 7.11646 19.7975 7.37158 20.2128 7.78687C20.6281 8.2019 20.8833 8.61865 21.0746 9.10962C21.2581 9.58447 21.3842 10.127 21.4215 10.9219C21.4573 11.7183 21.4666 11.9729 21.4666 14.0007C21.4666 16.0286 21.4573 16.2825 21.4215 17.0789C21.3842 17.8735 21.2581 18.4163 21.0746 18.8911C20.8833 19.3821 20.6281 19.7986 20.2128 20.2136C19.7979 20.6289 19.382 20.8848 18.8911 21.0754C18.416 21.26 17.8728 21.386 17.0779 21.4224C16.2814 21.4585 16.0277 21.4675 13.9997 21.4675C11.972 21.4675 11.7177 21.4585 10.9212 21.4224C10.1265 21.386 9.58374 21.26 9.10867 21.0754C8.61789 20.8848 8.20129 20.6289 7.78644 20.2136C7.37125 19.7986 7.11615 19.3821 6.92526 18.8909C6.74078 18.4163 6.61493 17.8735 6.57837 17.0786C6.5423 16.2822 6.53326 16.0286 6.53326 14.0007C6.53326 11.9729 6.5426 11.7183 6.57822 10.9216C6.61398 10.1272 6.73999 9.58447 6.92511 9.10938C7.11646 8.61865 7.37155 8.2019 7.7869 7.78687C8.20193 7.37183 8.6185 7.1167 9.10959 6.92603C9.58435 6.74121 10.127 6.61548 10.9218 6.5791Z" fill="white"/>
<path id="Combined Shape_2" fill-rule="evenodd" clip-rule="evenodd" d="M5.45135 0.00195312H5.87231H6.12119C8.11481 0.00195312 8.35107 0.0090332 9.13837 0.0449219C9.86636 0.078125 10.2615 0.199707 10.5247 0.302002C10.8731 0.437256 11.1216 0.599121 11.3828 0.860352C11.6441 1.12183 11.8058 1.37061 11.9415 1.71899C12.0437 1.98193 12.1655 2.37695 12.1986 3.10498C12.2344 3.89209 12.2422 4.12866 12.2422 6.12134C12.2422 8.11401 12.2344 8.35059 12.1986 9.1377C12.1653 9.86548 12.0437 10.2607 11.9415 10.5237C11.8062 10.8721 11.6441 11.1201 11.3828 11.3813C11.1214 11.6426 10.8733 11.8044 10.5247 11.9397C10.2618 12.0425 9.86636 12.1638 9.13837 12.197C8.35126 12.2329 8.11481 12.2407 6.12119 12.2407C4.12741 12.2407 3.89111 12.2329 3.10397 12.197C2.37598 12.1636 1.98087 12.0417 1.7175 11.9397C1.36905 11.8042 1.12018 11.6426 0.858826 11.3811C0.597504 11.1199 0.43573 10.8716 0.300079 10.5229C0.197876 10.26 0.0760803 9.86499 0.0429382 9.13696C0.00714111 8.34985 0 8.11328 0 6.11938C0 4.12549 0.00714111 3.89038 0.0429382 3.10327C0.0762329 2.37524 0.197876 1.97998 0.300079 1.7168C0.435394 1.36841 0.597504 1.11963 0.858826 0.858154C1.12018 0.596924 1.36905 0.435059 1.7175 0.299561C1.98071 0.196777 2.37598 0.0754395 3.10397 0.0419922C3.79279 0.0109863 4.05972 0.00146484 5.45135 0V0.00195312ZM10.1069 1.24097C9.61227 1.24097 9.21094 1.64185 9.21094 2.13672C9.21094 2.63135 9.61227 3.03271 10.1069 3.03271C10.6016 3.03271 11.003 2.63135 11.003 2.13672C11.003 1.64209 10.6016 1.24072 10.1069 1.24097ZM2.28674 6.12231C2.28674 4.00464 4.00363 2.28784 6.12122 2.28784C8.23868 2.28784 9.95508 4.00464 9.95508 6.12231C9.95508 8.23999 8.23883 9.95605 6.12122 9.95605C4.00363 9.95605 2.28674 8.23999 2.28674 6.12231Z" transform="translate(7.87952 7.87793)" fill="white"/>
<path id="Shape" fill-rule="evenodd" clip-rule="evenodd" d="M2.48891 0C3.86342 0 4.97783 1.11426 4.97783 2.48891C4.97783 3.86342 3.86342 4.97783 2.48891 4.97783C1.11426 4.97783 0 3.86342 0 2.48891C0 1.11426 1.11426 0 2.48891 0V0Z" transform="translate(11.5118 11.511)" fill="white"/>
</g>
</svg>
